Structured SI Model with Kronecker Products in macpan2 • macpan2
…
  ## make stratum names easier to read
  |> mutate(vax = case_when(
        vax == "unvax" ~ "Unvaccinated"
      , vax == "vax" ~ "Vaccinated"
  ))
  |> mutate(age = str_to_title(age))
) 

print(traj)

## # A tibble: 3,400 × 7
##    matrix       time age   vax          symp  col    value
##    <chr>       <int> <chr> <chr>        <chr> <chr>  <dbl>
##  1 infection       1 Young Unvaccinated NA    ""     0.27 
##  2 infection       1 Young Vaccinated   NA    ""     0    
##  3 infection       1 Old   Unvaccinated NA    ""     0.025
##  4 infection       1 Old   Vaccinated   NA    ""     0    
##  5 vaccination     1 Young NA           NA    ""     7.5  
##  6 vaccination     1 Old   NA           NA    ""    10    
##  7 infection_S     1 Young Unvaccinated NA    ""    -0.27 
##  8 infection_S     1 Young Vaccinated   NA    ""     0    
##  9 infection_S     1 Old   Unvaccinated NA    ""    -0.025
## 10 infection_S     1 Old   Vaccinated   NA    ""     0    
## # ℹ 3,390 more rows
…
