Fitting to Real Data • macpan2
…
One Scarlet Fever Outbreak in Ontario

The following code will pull data for a single scarlet fever outbreak
in Ontario that ended in 1930.

scarlet_fever_ontario = api_hook$filter(resource_type = "CANMOD CDI"
  , iso_3166_2 = "CA-ON"  ## get ontario data
  , time_scale = "wk"  ## weekly incidence data only 
  , disease = "scarlet-fever"
  
  # get data between 1929-08-01 and 1930-10-01
  , period_end_date = "1929-08-01..1930-10-01"
)
print(scarlet_fever_ontario)
#> # A tibble: 61 × 19
#>    iso_3166 iso_3166_2 location location_type period_start_date period_end_date
#>    <chr>    <chr>      <chr>    <chr>         <date>            <date>         
#>  1 CA       CA-ON      ONT.     province      1929-07-28        1929-08-03     
#>  2 CA       CA-ON      ONT.     province      1929-08-04        1929-08-10     
#>  3 CA       CA-ON      ONT.     province      1929-08-11        1929-08-17     
#>  4 CA       CA-ON      ONT.     province      1929-08-18        1929-08-24     
#>  5 CA       CA-ON      ONT.     province      1929-08-25        1929-08-31     
#>  6 CA       CA-ON      ONT.     province      1929-09-01        1929-09-07     
#>  7 CA       CA-ON      ONT.     province      1929-09-08        1929-09-14     
#>  8 CA       CA-ON      ONT.     province      1929-09-15        1929-09-21     
#>  9 CA       CA-ON      ONT.     province      1929-09-22        1929-09-28     
#> 10 CA       CA-ON      ONT.     province      1929-09-29        1929-10-05     
#> # ℹ 51 more rows
#> # ℹ 13 more variables: period_mid_date <date>, days_this_period <dbl>,
#> #   time_scale <chr>, disease <chr>, nesting_disease <chr>,
#> #   historical_disease_family <chr>, historical_disease <chr>,
#> #   historical_disease_subclass <chr>, dataset_id <chr>,
#> #   original_dataset_id <chr>, cases_this_period <dbl>, population <dbl>,
#> #   population_reporting <dbl>
…
